V3 3
FL "C:/Documents and Settings/Javier/Mis documentos/Proyectos FPGA/kaka/main.vhd" 2013/11/04.22:41:23 P.20131013
EN work/main 1383601286 \
      FL "C:/Documents and Settings/Javier/Mis documentos/Proyectos FPGA/kaka/main.vhd" \
      PB ieee/std_logic_1164 1381692176 PB ieee/STD_LOGIC_UNSIGNED 1381692179
AR work/main/Behavioral 1383601287 \
      FL "C:/Documents and Settings/Javier/Mis documentos/Proyectos FPGA/kaka/main.vhd" \
      EN work/main 1383601286
